{
    "imports": {
        "@ewsjs/ntlm-client": "npm:@ewsjs/ntlm-client@3.0.1",
        "slimdom": "npm:slimdom@4.3.5",
        "auth-header": "npm:auth-header@1.0.0",
        "kerberos": "npm:kerberos@2.2.0",
        "winston": "npm:winston@3.15.0",
        "xmlbuilder2": "npm:xmlbuilder2@3.1.1",
        "xpath": "npm:xpath@0.0.34"
    }
}